<svg version="1.1" id="Layer_1" xmlns="http://www.w3.org/2000/svg" xmlns:xlink="http://www.w3.org/1999/xlink" x="0px" y="0px"
	 viewBox="0 0 154 154" enable-background="new 0 0 154 154" xml:space="preserve">
<g>
	<circle fill-rule="evenodd" clip-rule="evenodd" fill="#FFFFFF" cx="77" cy="77" r="69"/>
	<path fill-rule="evenodd" clip-rule="evenodd" fill="#C8D3DA" d="M77,0C34.5,0,0,34.5,0,77s34.5,77,77,77c42.5,0,77-34.5,77-77
		S119.5,0,77,0z M77,146c-38.1,0-69-30.9-69-69C8,38.9,38.9,8,77,8c38.1,0,69,30.9,69,69C146,115.1,115.1,146,77,146z"/>
	<path fill="#949FA5" d="M119.8,52.9c0-4.1-2.7-6.7-6.8-6.8c-1.9,0-3.7,0-5.8,0c0-1-0.1-1.7,0-2.5c0.6-6.4-3.1-10.5-10.2-10.1
		c-5.5,0.3-8.7,3.2-8.7,8.8c0,1.3,0,2.6,0,3.9c-3.4,0-6.5,0-9.6,0c-3.1,0-6.2,0-8.9,0c-0.5-3.2-0.6-5.9-1.6-8.5
		c-1.1-2.9-3.9-4.1-7-4.1c-2.8,0-5.6-0.1-8,1.9c-3.4,2.9-2.6,6.8-2.7,10.7c-2,0-3.8,0-5.6,0c-4.4,0-7,2.6-7,6.9
		c0,20.6,0,41.2,0,61.7c0,4.3,2.6,6.9,6.9,6.9c22.7,0,45.5,0,68.2,0c4.2,0,6.8-2.6,6.8-6.8C119.8,94.3,119.8,73.6,119.8,52.9z
		 M58.3,115.5c-4.7,0-9.1,0-13.9,0c0-4.7,0-9.5,0-14.2c4.4,0,9.1,0,13.9,0C58.3,106,58.3,110.8,58.3,115.5z M58.3,98.2
		c-4.7,0-9.1,0-13.9,0c0-5.4,0-10.4,0-15.8c4.4,0,9.1,0,13.9,0C58.3,87.8,58.3,92.8,58.3,98.2z M58.3,79.3c-4.7,0-9.1,0-13.9,0
		c0-4.7,0-9.5,0-14.2c4.4,0,9.1,0,13.9,0C58.3,69.8,58.3,74.5,58.3,79.3z M60.5,57.2c-3.7,0-3.7,0-3.7-3.6c0-1.7,0-3.4,0-5
		c0-2.2,0-4.4,0-6.6c0-1.3,0.6-2,2-2.1c4.2-0.2,4.4,0,4.4,4.1c0,3.6,0,7.2,0,10.9c0,1.9-0.5,2.4-2.4,2.4
		C60.6,57.2,60.5,57.2,60.5,57.2z M77.2,115.5c-5,0-10.4,0-15.8,0c0-4.7,0-9.5,0-14.2c5.4,0,10.4,0,15.8,0
		C77.2,106,77.2,110.8,77.2,115.5z M77.2,98.2c-5.4,0-10.4,0-15.4,0c0-5.4,0-10.4,0-15.8c5,0,10.1,0,15.4,0
		C77.2,87.8,77.2,92.8,77.2,98.2z M77.2,79.3c-5,0-10.4,0-15.4,0c0-4.7,0-9.5,0-14.2c5,0,10.1,0,15.4,0
		C77.2,69.8,77.2,74.5,77.2,79.3z M113.4,65.1c0,4.7,0,9.5,0,14.2c-4.7,0-9.5,0-14.2,0c0-4.7,0-9.5,0-14.2
		C104,65.1,108.7,65.1,113.4,65.1z M80.6,65.1c5,0,10.1,0,15.4,0c0,4.7,0,9.5,0,14.2c-5.4,0-10.4,0-15.4,0
		C80.6,74.5,80.6,69.8,80.6,65.1z M80.3,82.4c5.4,0,10.4,0,15.8,0c0,5.4,0,10.4,0,15.8c-5.4,0-10.4,0-15.8,0
		C80.3,92.8,80.3,87.8,80.3,82.4z M96.1,115.5c-5.4,0-10.4,0-15.4,0c0-4.7,0-9.5,0-14.2c5,0,10.1,0,15.4,0
		C96.1,106,96.1,110.8,96.1,115.5z M94.6,53.3c0-1.6,0-3.1,0-4.7c0-2.2,0-4.3,0-6.5c0-1.7,0.5-2.2,2.1-2.2c4.1-0.1,4.2-0.1,4.2,4.1
		c0,3.6,0,7.2,0,10.9c0,1.9-0.5,2.4-2.3,2.4C94.6,57.3,94.6,57.3,94.6,53.3z M113.4,115.5c-4.7,0-9.1,0-14.2,0c0-4.7,0-9.5,0-14.2
		c4.7,0,9.5,0,14.2,0C113.4,106,113.4,110.8,113.4,115.5z M113.4,98.2c-4.7,0-9.1,0-14.2,0c0-5.4,0-10.4,0-15.8c4.7,0,9.5,0,14.2,0
		C113.4,87.8,113.4,92.8,113.4,98.2z"/>
	<path fill="#FFFFFF" d="M34,51c0,7,0,14,0,21c0,5.3,0,10.6,0,16c0-5.3,0-10.6,0-16C34,65,34.1,58,34,51z"/>
	<g>
		<g>
			<path fill="#53C9E5" d="M130.8,86.7c-1.6,0-3-0.4-4.1-0.8c-0.4,0.3-1,0.5-1.5,0.5h-4.9c-0.8,0-1.6-0.4-2-1.1
				c-0.5,0.6-1.2,1.1-2,1.1h-4.3c-0.9,0-1.7-0.5-2.1-1.2c-1.2,0.7-3.2,1.5-5.7,1.5c-2.9,0-5.2-1-6.8-2.6c0,0-0.1,0.1-0.1,0.1
				c-0.3,0.3-2.9,2.5-7.2,2.5c-3.9,0-6.7-1.9-8.2-4.4l-0.6,2.3c-0.3,1.1-1.3,1.8-2.4,1.8h-4.8c-0.7,0-1.3-0.3-1.7-0.7
				c-0.5,0.4-1.1,0.7-1.7,0.7h-4.9c-1.1,0-2.1-0.7-2.4-1.8l-3.6-12.9c-0.2-0.8-0.1-1.6,0.4-2.2s1.2-1,2-1h4.5c0.8,0,1.4,0.3,1.9,0.9
				c0.5-0.5,1.1-0.9,1.9-0.9H74c0.8,0,1.4,0.3,1.9,0.9c0.5-0.5,1.1-0.9,1.9-0.9h4.5c0.8,0,1.5,0.4,2,1c0,0.1,0.1,0.1,0.1,0.2
				c1.4-0.9,3.2-1.5,5.2-1.5c2.9,0,5.3,1.2,6.8,3.3c1.6-2.1,4.2-3.3,7.2-3.3c2.3,0,4.3,0.8,5.7,2.1V66c0-1.4,1.1-2.5,2.5-2.5h4.3
				c1.4,0,2.5,1.1,2.5,2.5v2.8c0.4-0.2,0.8-0.3,1.3-0.3h4.7c0.8,0,1.5,0.3,1.9,0.9c1.3-0.8,2.9-1.2,4.8-1.2c3.9,0,6,2,6.3,2.2
				c0.8,0.7,1,1.9,0.5,2.9l-1.2,2.6c1,1,1.7,2.4,1.7,4.2C138.6,83.3,135.9,86.7,130.8,86.7z M124.9,78.7l0.1-0.1
				c-0.5-0.5-0.9-1.2-1.1-1.9l-0.1,0.2L124.9,78.7z"/>
		</g>
		<g>
			<path fill="#FFFFFF" d="M116.2,66v9.2h1.2l2.5-4.2h4.7l-3.8,5.8v0.1l4.3,7h-4.9l-2.7-5h-1.4v5h-4.3V66H116.2 M131.4,70.7
				c3,0,4.5,1.5,4.5,1.5l-1.5,3.1c0,0-1.2-1-3-1c-0.6,0-1.3,0.2-1.3,0.6c0,1,6,1.1,6,5.3c0,2.2-1.9,4.1-5.3,4.1
				c-3.2,0-5.1-1.9-5.1-1.9l1.8-2.9c0,0,1.4,1.3,3.3,1.3c0.6,0,1.3-0.2,1.3-0.6c0-1.1-6-1.3-6-5.4C126.1,72.2,128.4,70.7,131.4,70.7
				 M103.6,70.7c3.8,0,5.9,2.6,5.9,6.2c0,0.4-0.1,1.3-0.1,1.3h-8.1c0.3,1.6,1.6,2.3,3,2.3c1.8,0,3.5-1.3,3.5-1.3l1.6,3
				c0,0-2.1,1.9-5.5,1.9c-4.6,0-7.1-3.3-7.1-6.7C96.9,73.6,99.5,70.7,103.6,70.7 M101.5,75.8h3.8c0-1-0.7-1.8-1.7-1.8
				C102.3,73.9,101.7,74.8,101.5,75.8 M89.6,70.7c3.8,0,5.9,2.6,5.9,6.2c0,0.4-0.1,1.3-0.1,1.3h-8.1c0.3,1.6,1.6,2.3,3,2.3
				c1.8,0,3.5-1.3,3.5-1.3l1.6,3c0,0-2.1,1.9-5.5,1.9c-4.6,0-7.1-3.3-7.1-6.7C82.9,73.6,85.4,70.7,89.6,70.7 M87.4,75.8h3.8
				c0-1-0.7-1.8-1.7-1.8C88.2,73.9,87.6,74.8,87.4,75.8 M82.3,71l-3.6,12.9h-4.8l-1.4-5.9c-0.2-0.7-0.3-1.4-0.3-1.4h0
				c0,0-0.1,0.7-0.3,1.4l-1.4,5.9h-4.9L62,71h4.5l1.6,7.6c0.1,0.7,0.1,1.4,0.1,1.4h0c0,0,0-0.6,0.2-1.4l1.8-7.6H74l1.8,7.6
				c0.2,0.7,0.2,1.4,0.2,1.4h0c0,0,0-0.6,0.2-1.4l1.6-7.6H82.3 M116.2,61h-4.3c-2.8,0-5,2.2-5,5v0.1c-1-0.3-2.1-0.4-3.2-0.4
				c-2.7,0-5.2,0.8-7.1,2.3c-1.8-1.5-4.2-2.3-6.9-2.3c-1.7,0-3.3,0.3-4.8,1C84,66.2,83.2,66,82.3,66h-4.5c-0.7,0-1.3,0.1-1.9,0.4
				C75.3,66.1,74.7,66,74,66h-3.7c-0.7,0-1.3,0.1-1.9,0.4c-0.6-0.2-1.2-0.4-1.9-0.4H62c-1.6,0-3,0.7-4,2c-0.9,1.2-1.3,2.9-0.8,4.4
				l3.6,12.9c0.6,2.2,2.6,3.7,4.8,3.7h4.9c0.6,0,1.2-0.1,1.7-0.3c0.5,0.2,1.1,0.3,1.7,0.3h4.8c1.6,0,3-0.7,4-2
				c2,1.4,4.5,2.2,7.3,2.2c3.2,0,5.7-1.1,7.2-2c1.9,1.2,4.3,2,6.9,2c2.1,0,3.9-0.4,5.3-1c0.8,0.5,1.6,0.7,2.6,0.7h4.3
				c0.7,0,1.4-0.2,2-0.4c0.6,0.3,1.3,0.4,2,0.4h4.9c0.6,0,1.2-0.1,1.7-0.3c1.1,0.4,2.5,0.6,3.9,0.6c5.9,0,10.3-3.9,10.3-9.1
				c0-1.9-0.5-3.4-1.3-4.6l0.6-1.2c0.9-1.9,0.5-4.3-1-5.8c-0.5-0.5-3.2-2.9-8-2.9c-1.6,0-3.2,0.3-4.5,0.8c-0.7-0.3-1.4-0.5-2.2-0.5
				h-3.5C121.2,63.2,118.9,61,116.2,61L116.2,61z"/>
		</g>
	</g>
	<g>
		<g>
			<path fill="#53C9E5" d="M40.7,106.4c-12.5,0-21.5-7.9-21.5-18.8c0-6.5,3.9-11.3,6.7-13.8c-2.8-2.9-4.1-6.3-4.1-10.3
				c0-8.2,6.1-17,19.6-17c11.8,0,19.7,6.9,19.7,17.3c0,5.1-2.7,9.8-4.8,12.6c3.8,3.2,5.7,7,5.7,11.8C62,97.2,54.7,106.4,40.7,106.4z
				 M37,80.8c-1.5,1.5-2.9,3.6-2.9,6c0,3.8,3.4,6,6.6,6c3.2,0,6.4-1.6,6.4-5.2c0-2.3-4.1-4.1-8.5-6.1C38.1,81.3,37.5,81,37,80.8z
				 M41.2,60c-1.5,0-4.9,0.4-4.9,3.6c0,2.6,3.2,4.3,8.5,6.5c0.9-1.3,1.9-3.4,1.9-5.9C46.6,60.4,42.8,60,41.2,60z"/>
			<path fill="#FFFFFF" d="M41.3,48.9c9.9,0,17.2,5.5,17.2,14.8c0,6.6-5.4,12.5-5.9,13.1c3.9,2.5,6.8,5.8,6.8,11.3
				c0,8.2-6.8,15.8-18.7,15.8c-11.5,0-19-7.2-19-16.3c0-7.6,6.4-12.6,8-13.7c-3.2-2.5-5.5-5.7-5.5-10.4
				C24.2,56.1,29.6,48.9,41.3,48.9 M45.5,73.2c0.8-0.8,3.6-4.3,3.6-9c0-4.1-3.1-6.7-7.9-6.7c-4.9,0-7.4,2.7-7.4,6.1
				C33.7,68.5,39.4,70.6,45.5,73.2 M40.7,95.3c4.9,0,8.9-3,8.9-7.7c0-4.6-6.7-6.7-13.1-9.8c-1.7,1.4-4.9,4.6-4.9,9
				C31.6,91.8,35.8,95.3,40.7,95.3 M41.3,43.9c-15.2,0-22.1,10.1-22.1,19.5c0,3.8,1.1,7.2,3.3,10.2c-2.8,3.1-5.8,7.8-5.8,14
				c0,12.4,10.1,21.3,24,21.3c15.4,0,23.7-10.7,23.7-20.8c0-4.7-1.7-8.8-4.9-12.2c2-3.2,4-7.5,4-12.3C63.6,52,54.4,43.9,41.3,43.9
				L41.3,43.9z M43.6,66.9c-2.4-1.1-4.8-2.4-4.8-3.3c0-0.3,0-1.1,2.4-1.1c2.9,0,2.9,1.3,2.9,1.7C44.1,65.2,43.9,66.1,43.6,66.9
				L43.6,66.9z M40.7,90.3c-2,0-4.1-1.2-4.1-3.5c0-1.1,0.4-2.1,1.1-3c2.4,1.1,6.3,2.8,7,3.9C44.5,90.3,41.1,90.3,40.7,90.3
				L40.7,90.3z"/>
		</g>
	</g>
</g>
</svg>
