<svg version="1.1" id="Layer_1" xmlns="http://www.w3.org/2000/svg" xmlns:xlink="http://www.w3.org/1999/xlink" x="0px" y="0px"
	 width="83px" height="83px" viewBox="0 0 83 83" enable-background="new 0 0 83 83" xml:space="preserve">
<g>
	<g>
		<path fill-rule="evenodd" clip-rule="evenodd" fill="#FF3B57" d="M29.4,5c20.2-6.7,42,4.2,48.7,24.4c6.7,20.2-4.2,42-24.4,48.7
			c-20.2,6.7-42-4.2-48.7-24.4C-1.7,33.5,9.2,11.7,29.4,5z"/>
		<path fill="#FFFFFF" d="M29.4,5c20.2-6.7,42,4.2,48.7,24.4c6.7,20.2-4.2,42-24.4,48.7c-20.2,6.7-42-4.2-48.7-24.4
			C-1.7,33.5,9.2,11.7,29.4,5 M28.4,2.1C6.7,9.3-5.1,32.9,2.1,54.6s30.7,33.5,52.5,26.3c21.7-7.2,33.5-30.7,26.3-52.5
			S50.1-5.1,28.4,2.1L28.4,2.1z"/>
	</g>
	<g>
		<path fill="#FFFFFF" d="M8.8,39.7l-0.1,0.8l-1.3-0.2l0.5-3.4c0.4-2.6,2.2-4.1,4.8-3.7c2.7,0.4,4,2.3,3.6,4.9L16,39.9
			c-0.1,0.6-0.4,0.8-0.9,0.7L8.8,39.7z M14.8,38.7l0.1-0.8c0.3-1.7-0.6-2.9-2.5-3.2c-1.9-0.3-3,0.7-3.3,2.3l-0.2,1l5.5,0.8
			C14.7,39,14.8,38.9,14.8,38.7z"/>
		<path fill="#FFFFFF" d="M16.3,32.2l0.3-0.8l-5.4-2.3L11,29.9l-1.2-0.5l1.3-2.9l1.2,0.5l-0.3,0.8l5.4,2.3l0.3-0.8l1.2,0.5l-1.3,2.9
			L16.3,32.2z"/>
		<path fill="#FFFFFF" d="M14.1,23.7l-0.5,0.6l-1.1-0.8l3.1-4.1c0.3-0.5,0.7-0.5,1.1-0.2l1,0.8l-0.9,1.1l-0.4-0.3
			c-0.1-0.1-0.3-0.1-0.4,0.1L15,22.4l1.8,1.3l1.7-2.2l1.1,0.8l-1.7,2.2l1.6,1.2c0.1,0.1,0.3,0.1,0.4-0.1l1.2-1.6
			c0.1-0.1,0.1-0.3-0.1-0.4l-0.4-0.3l0.9-1.1l1,0.8c0.5,0.3,0.5,0.7,0.2,1.1l-2.3,3.1c-0.3,0.5-0.7,0.5-1.1,0.2L14.1,23.7z"/>
		<path fill="#FFFFFF" d="M21.7,15.5l-1.1,0.8c-0.1,0.1-0.2,0.2-0.1,0.4l0.3,0.4l-1.1,0.8L19,16.7c-0.3-0.5-0.3-0.7,0.2-1.1l4.8-3.5
			c0.5-0.3,0.7-0.3,1.1,0.2l0.8,1.1l-1.1,0.8l-0.3-0.4c-0.1-0.1-0.2-0.2-0.4-0.1L23,14.6l4.2,5.8l-1.3,0.9L21.7,15.5z"/>
		<path fill="#FFFFFF" d="M30.2,17.1l0.8-0.3l-2.1-5.4L28,11.7l-0.5-1.2l3-1.2l0.5,1.2l-0.8,0.3l2.1,5.4l0.8-0.3l0.5,1.2l-3,1.2
			L30.2,17.1z"/>
		<path fill="#FFFFFF" d="M38,7.5c1.1-0.1,3.3,0.1,3.4,1.5l0.1,0.9l-1.4,0.2l-0.1-0.5C40,9,39,8.9,38.3,9c-1.5,0.2-2.6,1.4-2.4,3.2
			c0.2,1.7,1.6,2.9,3.1,2.7c1.6-0.2,2.4-1.4,2.4-1.4l1,1c0,0-1.1,1.6-3.2,1.8c-2.6,0.3-4.6-1.4-4.9-3.9C34,9.9,35.6,7.8,38,7.5z"/>
		<path fill="#FFFFFF" d="M43.9,14.7l0.8,0.1l0.9-5.8l-0.8-0.1L45,7.6l3.2,0.5l-0.2,1.3l-0.8-0.1l-0.9,5.8l0.8,0.1l-0.2,1.3L43.7,16
			L43.9,14.7z"/>
		<path fill="#FFFFFF" d="M48.4,15.3l0.2,0.1c0.2,0.1,0.3,0.1,0.4-0.1l5.1-5.4l1.5,0.6l-0.4,7.4c0,0.2,0,0.3,0.2,0.4l0.2,0.1
			l-0.5,1.2l-0.9-0.4c-0.6-0.2-0.7-0.5-0.7-1l0.1-1.6L51,15.5L50,16.6c-0.4,0.4-0.6,0.5-1.2,0.2l-0.9-0.4L48.4,15.3z M53.9,15.3
			L54,13c0-0.5,0.2-1.3,0.2-1.3l0,0c0,0-0.5,0.7-0.8,1l-1.5,1.7L53.9,15.3z"/>
		<path fill="#FFFFFF" d="M56.7,19l0.4,0.4c0.1,0.1,0.3,0.1,0.4,0l4.7-5.1l1,1l-0.9,5.6c-0.1,0.6-0.3,1.4-0.3,1.4l0,0
			c0,0,0.4-0.6,0.8-0.9l2.7-2.8c0.4-0.4,0.7-0.4,1.2,0l1.1,1l-0.9,1l-0.4-0.4c-0.1-0.1-0.3-0.1-0.4,0l-4.7,5l-1-1l0.9-5.6
			c0.1-0.6,0.3-1.4,0.3-1.4l0,0c0,0-0.4,0.6-0.8,0.9L58.1,21c-0.4,0.4-0.7,0.4-1.2,0l-1.1-1L56.7,19z"/>
	</g>
	<g>
		<g>
			<path fill="#FFFFFF" d="M15.9,62.5l0.1,0.1c0.1,0.1,0.3,0.2,0.5,0.1l6.6-3.4l1.2,1.1l-2.9,6.8c-0.1,0.2-0.1,0.3,0.1,0.4l0.1,0.1
				l-0.9,1l-0.7-0.6c-0.4-0.4-0.5-0.7-0.3-1.2l0.6-1.5l-2.1-2l-1.4,0.7c-0.5,0.3-0.8,0.2-1.2-0.2L15,63.5L15.9,62.5z M21,64.3
				l0.9-2.1c0.2-0.4,0.6-1.2,0.6-1.2l0,0c0,0-0.7,0.5-1.1,0.7l-2,1.1L21,64.3z"/>
			<path fill="#FFFFFF" d="M27.1,64.3L26.4,64l0.6-1.2l3.5,1.7c1.4,0.7,1.9,2.2,1.2,3.7c-0.7,1.5-2.2,2-3.7,1.3l-1.4-0.7l-1.3,2.6
				L24,70.8L27.1,64.3z M28.4,68.2c0.8,0.4,1.5,0.1,1.9-0.7c0.4-0.8,0.2-1.5-0.6-1.9L28.5,65l-1.3,2.6L28.4,68.2z"/>
			<path fill="#FFFFFF" d="M34.1,67.3l-0.8-0.1l0.2-1.3l3.8,0.7c1.6,0.3,2.5,1.6,2.2,3.2c-0.3,1.6-1.6,2.6-3.2,2.3l-1.5-0.3
				l-0.5,2.9l-1.5-0.3L34.1,67.3z M36.4,70.7c0.9,0.2,1.5-0.3,1.6-1.2c0.2-0.9-0.2-1.5-1.1-1.7l-1.3-0.2l-0.5,2.9L36.4,70.7z"/>
			<path fill="#FFFFFF" d="M41.6,68.3l-0.8,0.1l-0.1-1.3l3.8-0.4c1.6-0.2,2.7,0.7,2.9,2.3c0.2,1.5-0.8,2.3-1.2,2.4l0,0
				c0,0,0.3,0.1,0.5,0.4l1,1.5c0.2,0.2,0.4,0.2,0.6,0.2l0.2,0l0.1,1.3l-0.8,0.1c-0.6,0.1-0.9,0-1.3-0.5l-1.3-2
				C45,72,44.8,72,44.4,72l-0.8,0.1l0.3,3.2l-1.6,0.2L41.6,68.3z M44.7,70.7c0.8-0.1,1.2-0.6,1.1-1.5c-0.1-0.8-0.6-1.3-1.4-1.2
				l-1.3,0.1l0.3,2.6L44.7,70.7z"/>
			<path fill="#FFFFFF" d="M52,64.4c2.3-1,4.8-0.1,5.8,2.1c1,2.3,0.1,4.8-2.2,5.9s-4.8,0-5.9-2.2C48.8,67.9,49.7,65.4,52,64.4z
				 M55,71.1c1.4-0.6,2-2.3,1.3-3.9c-0.7-1.5-2.3-2.1-3.7-1.5s-2,2.3-1.3,3.8C52,71,53.7,71.7,55,71.1z"/>
			<path fill="#FFFFFF" d="M57.7,63.3c-0.2-0.1-0.3-0.1-0.5,0.1l-0.2,0.1l-0.9-1l0.7-0.7c0.4-0.4,0.7-0.4,1.2-0.2l4.5,2.3
				c0.5,0.2,1.1,0.7,1.1,0.7l0,0c0,0-0.4-0.7-0.6-1.1L61,58.9c-0.2-0.5-0.2-0.8,0.2-1.2l0.7-0.7l0.9,1l-0.2,0.2
				c-0.1,0.1-0.2,0.3-0.1,0.4l2.9,6.8l-1.2,1.1L57.7,63.3z"/>
			<path fill="#FFFFFF" d="M63.7,56.6l-0.4,0.7l-1.2-0.7l2.6-4.5c0.3-0.5,0.6-0.6,1.1-0.3l1.1,0.6l-0.7,1.2l-0.4-0.3
				c-0.1-0.1-0.3,0-0.4,0.1l-1,1.7l1.9,1.1l1.4-2.4l1.2,0.7L67.6,57l1.8,1c0.1,0.1,0.3,0,0.4-0.1l1-1.7c0.1-0.1,0-0.3-0.1-0.4
				l-0.4-0.3l0.7-1.2L72,55c0.5,0.3,0.6,0.6,0.3,1.1l-1.9,3.3c-0.3,0.5-0.6,0.6-1.1,0.3L63.7,56.6z"/>
			<path fill="#FFFFFF" d="M67.1,50.2L67,50.9l-1.3-0.3l0.8-3.4c0.6-2.6,2.5-3.9,5.1-3.3c2.6,0.6,3.8,2.6,3.2,5.2L74.3,51
				c-0.1,0.6-0.4,0.7-1,0.6L67.1,50.2z M73.3,49.7l0.2-0.7c0.4-1.7-0.4-3-2.2-3.4c-1.8-0.4-3.1,0.4-3.5,2.1l-0.2,1l5.4,1.3
				C73.1,49.9,73.2,49.9,73.3,49.7z"/>
		</g>
	</g>
	<path fill-rule="evenodd" clip-rule="evenodd" fill="#FFFFFF" d="M33.2,40.4l3.9,7.3c0,0,6.4-14.8,16.5-19.7
		c-0.2,3.5-1.2,6.6,0.5,10.3C49.7,39.3,40.6,49.8,37.7,55c-4.2-4.9-9.1-8.7-12.5-9.9L33.2,40.4z"/>
</g>
</svg>
